\relax 
\@writefile{toc}{\contentsline {section}{\numberline {1}3 lump model }{i}}
\@writefile{toc}{\contentsline {subsection}{\numberline {1.1}Results}{i}}
\@writefile{lof}{\contentsline {figure}{\numberline {1}{\ignorespaces time vs y fit}}{i}}
\newlabel{Molar Flow Rate}{{1}{i}}
\@writefile{lof}{\contentsline {figure}{\numberline {2}{\ignorespaces conversion vs yield}}{i}}
\@writefile{toc}{\contentsline {section}{\numberline {2}4 lump model}{ii}}
\@writefile{toc}{\contentsline {subsection}{\numberline {2.1}Results}{ii}}
\@writefile{lof}{\contentsline {figure}{\numberline {3}{\ignorespaces time vs y fit}}{ii}}
\newlabel{Molar Flow Rate}{{3}{ii}}
\@writefile{lof}{\contentsline {figure}{\numberline {4}{\ignorespaces conversion vs yield}}{ii}}
