\relax 
\@writefile{lof}{\contentsline {figure}{\numberline {1}{\ignorespaces Geometric Model}}{1}}
\newlabel{PZT}{{1}{1}}
\@writefile{toc}{\contentsline {section}{\numberline {1}Introduction}{1}}
\newlabel{section1}{{1}{1}}
\@writefile{toc}{\contentsline {section}{\numberline {2}Background}{1}}
\newlabel{section2}{{2}{1}}
\@writefile{toc}{\contentsline {subsection}{\numberline {2.1}Piezoelectric Material}{1}}
\@writefile{toc}{\contentsline {subsection}{\numberline {2.2}Properties to be varied}{1}}
\citation{be}
\citation{co}
\citation{Arn}
\citation{Dan}
\bibstyle{plain}
\bibdata{bib_yeam_hossain}
\@writefile{toc}{\contentsline {section}{\numberline {3}Equations}{2}}
\@writefile{toc}{\contentsline {subsection}{\numberline {3.1}Structural Equation}{2}}
\newlabel{1}{{1}{2}}
\@writefile{toc}{\contentsline {subsection}{\numberline {3.2}Strain to voltage equation}{2}}
\newlabel{2}{{2}{2}}
\@writefile{toc}{\contentsline {section}{\numberline {4}Geometric Dimensions}{2}}
