\contentsline {section}{\numberline {1}3 lump model }{i}
\contentsline {subsection}{\numberline {1.1}Results}{i}
\contentsline {section}{\numberline {2}4 lump model}{ii}
\contentsline {subsection}{\numberline {2.1}Results}{ii}
