\contentsline {section}{\numberline {1}3 lump model }{i}
\contentsline {subsection}{\numberline {1.1}Results verification}{i}
\contentsline {section}{\numberline {2}4 lump model}{ii}
\contentsline {subsection}{\numberline {2.1}Results verification}{iii}
\contentsline {section}{\numberline {3}Computational assignment 3 results verification}{iv}
