\relax 
\@writefile{toc}{\contentsline {section}{\numberline {1}3 lump model }{i}}
\@writefile{toc}{\contentsline {subsection}{\numberline {1.1}Results verification}{i}}
\@writefile{lof}{\contentsline {figure}{\numberline {1}{\ignorespaces 3 lump model}}{i}}
\@writefile{lof}{\contentsline {figure}{\numberline {2}{\ignorespaces 3 lump model GUI window}}{ii}}
\@writefile{toc}{\contentsline {section}{\numberline {2}4 lump model}{ii}}
\@writefile{toc}{\contentsline {subsection}{\numberline {2.1}Results verification}{iii}}
\@writefile{lof}{\contentsline {figure}{\numberline {3}{\ignorespaces 4 lump model}}{iii}}
\@writefile{lof}{\contentsline {figure}{\numberline {4}{\ignorespaces 4 lump model GUI window}}{iv}}
\@writefile{toc}{\contentsline {section}{\numberline {3}Computational assignment 3 results verification}{iv}}
\@writefile{lof}{\contentsline {figure}{\numberline {5}{\ignorespaces Result of CA-3}}{iv}}
\@writefile{lof}{\contentsline {figure}{\numberline {6}{\ignorespaces CA 3 GUI window}}{v}}
